<?xml version="1.0" encoding="UTF-8"?>
<dia:diagram xmlns:dia="http://www.lysator.liu.se/~alla/dia/">
  <dia:diagramdata>
    <dia:attribute name="background">
      <dia:color val="#ffffff"/>
    </dia:attribute>
    <dia:attribute name="pagebreak">
      <dia:color val="#000099"/>
    </dia:attribute>
    <dia:attribute name="paper">
      <dia:composite type="paper">
        <dia:attribute name="name">
          <dia:string>#A4#</dia:string>
        </dia:attribute>
        <dia:attribute name="tmargin">
          <dia:real val="2.8222000598907471"/>
        </dia:attribute>
        <dia:attribute name="bmargin">
          <dia:real val="2.8222000598907471"/>
        </dia:attribute>
        <dia:attribute name="lmargin">
          <dia:real val="2.8222000598907471"/>
        </dia:attribute>
        <dia:attribute name="rmargin">
          <dia:real val="2.8222000598907471"/>
        </dia:attribute>
        <dia:attribute name="is_portrait">
          <dia:boolean val="true"/>
        </dia:attribute>
        <dia:attribute name="scaling">
          <dia:real val="1"/>
        </dia:attribute>
        <dia:attribute name="fitto">
          <dia:boolean val="false"/>
        </dia:attribute>
      </dia:composite>
    </dia:attribute>
    <dia:attribute name="grid">
      <dia:composite type="grid">
        <dia:attribute name="width_x">
          <dia:real val="1"/>
        </dia:attribute>
        <dia:attribute name="width_y">
          <dia:real val="1"/>
        </dia:attribute>
        <dia:attribute name="visible_x">
          <dia:int val="1"/>
        </dia:attribute>
        <dia:attribute name="visible_y">
          <dia:int val="1"/>
        </dia:attribute>
        <dia:composite type="color"/>
      </dia:composite>
    </dia:attribute>
    <dia:attribute name="color">
      <dia:color val="#d8e5e5"/>
    </dia:attribute>
    <dia:attribute name="guides">
      <dia:composite type="guides">
        <dia:attribute name="hguides"/>
        <dia:attribute name="vguides"/>
      </dia:composite>
    </dia:attribute>
  </dia:diagramdata>
  <dia:layer name="Fondo" visible="true" active="true">
    <dia:object type="Database - Table" version="0" id="O0">
      <dia:attribute name="obj_pos">
        <dia:point val="13.4,6.1"/>
      </dia:attribute>
      <dia:attribute name="obj_bb">
        <dia:rectangle val="13.4,6.1;20.86,14.4"/>
      </dia:attribute>
      <dia:attribute name="meta">
        <dia:composite type="dict"/>
      </dia:attribute>
      <dia:attribute name="elem_corner">
        <dia:point val="13.4,6.1"/>
      </dia:attribute>
      <dia:attribute name="elem_width">
        <dia:real val="7.46"/>
      </dia:attribute>
      <dia:attribute name="elem_height">
        <dia:real val="8.2999999999999989"/>
      </dia:attribute>
      <dia:attribute name="text_colour">
        <dia:color val="#000000"/>
      </dia:attribute>
      <dia:attribute name="line_colour">
        <dia:color val="#000000"/>
      </dia:attribute>
      <dia:attribute name="fill_colour">
        <dia:color val="#ffffff"/>
      </dia:attribute>
      <dia:attribute name="line_width">
        <dia:real val="0.10000000000000001"/>
      </dia:attribute>
      <dia:attribute name="name">
        <dia:string>#Afiliados#</dia:string>
      </dia:attribute>
      <dia:attribute name="comment">
        <dia:string>##</dia:string>
      </dia:attribute>
      <dia:attribute name="visible_comment">
        <dia:boolean val="false"/>
      </dia:attribute>
      <dia:attribute name="tagging_comment">
        <dia:boolean val="false"/>
      </dia:attribute>
      <dia:attribute name="underline_primary_key">
        <dia:boolean val="true"/>
      </dia:attribute>
      <dia:attribute name="bold_primary_keys">
        <dia:boolean val="false"/>
      </dia:attribute>
      <dia:attribute name="normal_font">
        <dia:font family="monospace" style="0" name="Courier"/>
      </dia:attribute>
      <dia:attribute name="name_font">
        <dia:font family="sans" style="80" name="Helvetica-Bold"/>
      </dia:attribute>
      <dia:attribute name="comment_font">
        <dia:font family="sans" style="0" name="Helvetica"/>
      </dia:attribute>
      <dia:attribute name="normal_font_height">
        <dia:real val="0.80000000000000004"/>
      </dia:attribute>
      <dia:attribute name="name_font_height">
        <dia:real val="0.69999999999999996"/>
      </dia:attribute>
      <dia:attribute name="comment_font_height">
        <dia:real val="0.69999999999999996"/>
      </dia:attribute>
      <dia:attribute name="attributes">
        <dia:composite type="table_attribute">
          <dia:attribute name="name">
            <dia:string>#id_afiliado#</dia:string>
          </dia:attribute>
          <dia:attribute name="type">
            <dia:string>##</dia:string>
          </dia:attribute>
          <dia:attribute name="comment">
            <dia:string>##</dia:string>
          </dia:attribute>
          <dia:attribute name="primary_key">
            <dia:boolean val="true"/>
          </dia:attribute>
          <dia:attribute name="nullable">
            <dia:boolean val="false"/>
          </dia:attribute>
          <dia:attribute name="unique">
            <dia:boolean val="true"/>
          </dia:attribute>
        </dia:composite>
        <dia:composite type="table_attribute">
          <dia:attribute name="name">
            <dia:string>#n_identificacion#</dia:string>
          </dia:attribute>
          <dia:attribute name="type">
            <dia:string>##</dia:string>
          </dia:attribute>
          <dia:attribute name="comment">
            <dia:string>##</dia:string>
          </dia:attribute>
          <dia:attribute name="primary_key">
            <dia:boolean val="false"/>
          </dia:attribute>
          <dia:attribute name="nullable">
            <dia:boolean val="false"/>
          </dia:attribute>
          <dia:attribute name="unique">
            <dia:boolean val="true"/>
          </dia:attribute>
        </dia:composite>
        <dia:composite type="table_attribute">
          <dia:attribute name="name">
            <dia:string>#Nombre#</dia:string>
          </dia:attribute>
          <dia:attribute name="type">
            <dia:string>##</dia:string>
          </dia:attribute>
          <dia:attribute name="comment">
            <dia:string>##</dia:string>
          </dia:attribute>
          <dia:attribute name="primary_key">
            <dia:boolean val="false"/>
          </dia:attribute>
          <dia:attribute name="nullable">
            <dia:boolean val="true"/>
          </dia:attribute>
          <dia:attribute name="unique">
            <dia:boolean val="false"/>
          </dia:attribute>
        </dia:composite>
        <dia:composite type="table_attribute">
          <dia:attribute name="name">
            <dia:string>#tipo_documento#</dia:string>
          </dia:attribute>
          <dia:attribute name="type">
            <dia:string>##</dia:string>
          </dia:attribute>
          <dia:attribute name="comment">
            <dia:string>##</dia:string>
          </dia:attribute>
          <dia:attribute name="primary_key">
            <dia:boolean val="false"/>
          </dia:attribute>
          <dia:attribute name="nullable">
            <dia:boolean val="true"/>
          </dia:attribute>
          <dia:attribute name="unique">
            <dia:boolean val="false"/>
          </dia:attribute>
        </dia:composite>
        <dia:composite type="table_attribute">
          <dia:attribute name="name">
            <dia:string>#direccion#</dia:string>
          </dia:attribute>
          <dia:attribute name="type">
            <dia:string>##</dia:string>
          </dia:attribute>
          <dia:attribute name="comment">
            <dia:string>##</dia:string>
          </dia:attribute>
          <dia:attribute name="primary_key">
            <dia:boolean val="false"/>
          </dia:attribute>
          <dia:attribute name="nullable">
            <dia:boolean val="true"/>
          </dia:attribute>
          <dia:attribute name="unique">
            <dia:boolean val="false"/>
          </dia:attribute>
        </dia:composite>
        <dia:composite type="table_attribute">
          <dia:attribute name="name">
            <dia:string>#telefono#</dia:string>
          </dia:attribute>
          <dia:attribute name="type">
            <dia:string>##</dia:string>
          </dia:attribute>
          <dia:attribute name="comment">
            <dia:string>##</dia:string>
          </dia:attribute>
          <dia:attribute name="primary_key">
            <dia:boolean val="false"/>
          </dia:attribute>
          <dia:attribute name="nullable">
            <dia:boolean val="true"/>
          </dia:attribute>
          <dia:attribute name="unique">
            <dia:boolean val="false"/>
          </dia:attribute>
        </dia:composite>
        <dia:composite type="table_attribute">
          <dia:attribute name="name">
            <dia:string>#email#</dia:string>
          </dia:attribute>
          <dia:attribute name="type">
            <dia:string>##</dia:string>
          </dia:attribute>
          <dia:attribute name="comment">
            <dia:string>##</dia:string>
          </dia:attribute>
          <dia:attribute name="primary_key">
            <dia:boolean val="false"/>
          </dia:attribute>
          <dia:attribute name="nullable">
            <dia:boolean val="true"/>
          </dia:attribute>
          <dia:attribute name="unique">
            <dia:boolean val="false"/>
          </dia:attribute>
        </dia:composite>
        <dia:composite type="table_attribute">
          <dia:attribute name="name">
            <dia:string>#fecha_nacimiento#</dia:string>
          </dia:attribute>
          <dia:attribute name="type">
            <dia:string>##</dia:string>
          </dia:attribute>
          <dia:attribute name="comment">
            <dia:string>##</dia:string>
          </dia:attribute>
          <dia:attribute name="primary_key">
            <dia:boolean val="false"/>
          </dia:attribute>
          <dia:attribute name="nullable">
            <dia:boolean val="true"/>
          </dia:attribute>
          <dia:attribute name="unique">
            <dia:boolean val="false"/>
          </dia:attribute>
        </dia:composite>
        <dia:composite type="table_attribute">
          <dia:attribute name="name">
            <dia:string>#fecha_afiliacion#</dia:string>
          </dia:attribute>
          <dia:attribute name="type">
            <dia:string>##</dia:string>
          </dia:attribute>
          <dia:attribute name="comment">
            <dia:string>##</dia:string>
          </dia:attribute>
          <dia:attribute name="primary_key">
            <dia:boolean val="false"/>
          </dia:attribute>
          <dia:attribute name="nullable">
            <dia:boolean val="true"/>
          </dia:attribute>
          <dia:attribute name="unique">
            <dia:boolean val="false"/>
          </dia:attribute>
        </dia:composite>
      </dia:attribute>
    </dia:object>
    <dia:object type="Database - Table" version="0" id="O1">
      <dia:attribute name="obj_pos">
        <dia:point val="29.6,8.55"/>
      </dia:attribute>
      <dia:attribute name="obj_bb">
        <dia:rectangle val="29.6,8.55;35.52,12.85"/>
      </dia:attribute>
      <dia:attribute name="meta">
        <dia:composite type="dict"/>
      </dia:attribute>
      <dia:attribute name="elem_corner">
        <dia:point val="29.6,8.55"/>
      </dia:attribute>
      <dia:attribute name="elem_width">
        <dia:real val="5.9199999999999999"/>
      </dia:attribute>
      <dia:attribute name="elem_height">
        <dia:real val="4.3000000000000007"/>
      </dia:attribute>
      <dia:attribute name="text_colour">
        <dia:color val="#000000"/>
      </dia:attribute>
      <dia:attribute name="line_colour">
        <dia:color val="#000000"/>
      </dia:attribute>
      <dia:attribute name="fill_colour">
        <dia:color val="#ffffff"/>
      </dia:attribute>
      <dia:attribute name="line_width">
        <dia:real val="0.10000000000000001"/>
      </dia:attribute>
      <dia:attribute name="name">
        <dia:string>#Sisbens#</dia:string>
      </dia:attribute>
      <dia:attribute name="comment">
        <dia:string>##</dia:string>
      </dia:attribute>
      <dia:attribute name="visible_comment">
        <dia:boolean val="false"/>
      </dia:attribute>
      <dia:attribute name="tagging_comment">
        <dia:boolean val="false"/>
      </dia:attribute>
      <dia:attribute name="underline_primary_key">
        <dia:boolean val="true"/>
      </dia:attribute>
      <dia:attribute name="bold_primary_keys">
        <dia:boolean val="false"/>
      </dia:attribute>
      <dia:attribute name="normal_font">
        <dia:font family="monospace" style="0" name="Courier"/>
      </dia:attribute>
      <dia:attribute name="name_font">
        <dia:font family="sans" style="80" name="Helvetica-Bold"/>
      </dia:attribute>
      <dia:attribute name="comment_font">
        <dia:font family="sans" style="0" name="Helvetica"/>
      </dia:attribute>
      <dia:attribute name="normal_font_height">
        <dia:real val="0.80000000000000004"/>
      </dia:attribute>
      <dia:attribute name="name_font_height">
        <dia:real val="0.69999999999999996"/>
      </dia:attribute>
      <dia:attribute name="comment_font_height">
        <dia:real val="0.69999999999999996"/>
      </dia:attribute>
      <dia:attribute name="attributes">
        <dia:composite type="table_attribute">
          <dia:attribute name="name">
            <dia:string>#id_sisben#</dia:string>
          </dia:attribute>
          <dia:attribute name="type">
            <dia:string>##</dia:string>
          </dia:attribute>
          <dia:attribute name="comment">
            <dia:string>##</dia:string>
          </dia:attribute>
          <dia:attribute name="primary_key">
            <dia:boolean val="true"/>
          </dia:attribute>
          <dia:attribute name="nullable">
            <dia:boolean val="false"/>
          </dia:attribute>
          <dia:attribute name="unique">
            <dia:boolean val="true"/>
          </dia:attribute>
        </dia:composite>
        <dia:composite type="table_attribute">
          <dia:attribute name="name">
            <dia:string>#nivel_sisben#</dia:string>
          </dia:attribute>
          <dia:attribute name="type">
            <dia:string>##</dia:string>
          </dia:attribute>
          <dia:attribute name="comment">
            <dia:string>##</dia:string>
          </dia:attribute>
          <dia:attribute name="primary_key">
            <dia:boolean val="false"/>
          </dia:attribute>
          <dia:attribute name="nullable">
            <dia:boolean val="true"/>
          </dia:attribute>
          <dia:attribute name="unique">
            <dia:boolean val="false"/>
          </dia:attribute>
        </dia:composite>
        <dia:composite type="table_attribute">
          <dia:attribute name="name">
            <dia:string>#puntaje#</dia:string>
          </dia:attribute>
          <dia:attribute name="type">
            <dia:string>##</dia:string>
          </dia:attribute>
          <dia:attribute name="comment">
            <dia:string>##</dia:string>
          </dia:attribute>
          <dia:attribute name="primary_key">
            <dia:boolean val="false"/>
          </dia:attribute>
          <dia:attribute name="nullable">
            <dia:boolean val="true"/>
          </dia:attribute>
          <dia:attribute name="unique">
            <dia:boolean val="false"/>
          </dia:attribute>
        </dia:composite>
        <dia:composite type="table_attribute">
          <dia:attribute name="name">
            <dia:string>#id_afiliado#</dia:string>
          </dia:attribute>
          <dia:attribute name="type">
            <dia:string>##</dia:string>
          </dia:attribute>
          <dia:attribute name="comment">
            <dia:string>##</dia:string>
          </dia:attribute>
          <dia:attribute name="primary_key">
            <dia:boolean val="false"/>
          </dia:attribute>
          <dia:attribute name="nullable">
            <dia:boolean val="true"/>
          </dia:attribute>
          <dia:attribute name="unique">
            <dia:boolean val="false"/>
          </dia:attribute>
        </dia:composite>
      </dia:attribute>
    </dia:object>
    <dia:object type="Database - Reference" version="0" id="O2">
      <dia:attribute name="obj_pos">
        <dia:point val="29.6,10.75"/>
      </dia:attribute>
      <dia:attribute name="obj_bb">
        <dia:rectangle val="20.86,10.05;29.6,10.75"/>
      </dia:attribute>
      <dia:attribute name="meta">
        <dia:composite type="dict"/>
      </dia:attribute>
      <dia:attribute name="orth_points">
        <dia:point val="29.6,10.75"/>
        <dia:point val="25.23,10.75"/>
        <dia:point val="25.23,10.7"/>
        <dia:point val="20.86,10.7"/>
      </dia:attribute>
      <dia:attribute name="orth_orient">
        <dia:enum val="0"/>
        <dia:enum val="1"/>
        <dia:enum val="0"/>
      </dia:attribute>
      <dia:attribute name="orth_autoroute">
        <dia:boolean val="true"/>
      </dia:attribute>
      <dia:attribute name="text_colour">
        <dia:color val="#000000"/>
      </dia:attribute>
      <dia:attribute name="line_colour">
        <dia:color val="#000000"/>
      </dia:attribute>
      <dia:attribute name="line_width">
        <dia:real val="0.10000000000000001"/>
      </dia:attribute>
      <dia:attribute name="line_style">
        <dia:enum val="0"/>
        <dia:real val="1"/>
      </dia:attribute>
      <dia:attribute name="corner_radius">
        <dia:real val="0"/>
      </dia:attribute>
      <dia:attribute name="end_arrow">
        <dia:enum val="20"/>
      </dia:attribute>
      <dia:attribute name="end_arrow_length">
        <dia:real val="0.5"/>
      </dia:attribute>
      <dia:attribute name="end_arrow_width">
        <dia:real val="0.5"/>
      </dia:attribute>
      <dia:attribute name="start_point_desc">
        <dia:string>#1#</dia:string>
      </dia:attribute>
      <dia:attribute name="end_point_desc">
        <dia:string>#n#</dia:string>
      </dia:attribute>
      <dia:attribute name="normal_font">
        <dia:font family="monospace" style="0" name="Courier"/>
      </dia:attribute>
      <dia:attribute name="normal_font_height">
        <dia:real val="0.59999999999999998"/>
      </dia:attribute>
      <dia:connections>
        <dia:connection handle="0" to="O1" connection="14"/>
        <dia:connection handle="1" to="O0" connection="21"/>
      </dia:connections>
    </dia:object>
  </dia:layer>
</dia:diagram>
